9640001326,71.53
9640001323,64.51
9640001325,67.95
9640001327,70.26
9640001338,74.18
9640001340,77.46
9640001342,84.07
9640001343,92.13
9640001329,81.42
9640001331,88.24
9640001345,97.47
9640001346,106.63
9640001347,115.44
9640001310,35.75
9640001312,38.88
9640001314,42.5
9640001316,53.8
9640001357,147.09
9640001359,158.22
9640001362,179.29
9640001363,186.56
9640003323,79.76
9640003325,88.55
9640003326,93.57
9640003327,101.46
9640003329,111.72
9640003331,122.95
9640003338,93.54
9640003340,104.63
9640003342,110.83
9640003343,119.78
9640003345,0
9640003346,145.54
9640003347,152.47
9640003310,41.22
9640003312,52.07
9640003314,59.27
9640003316,63.65
9640003357,208.16
9640003359,219.14
9640003362,255.54
9640003363,265.84
9640005310,93.63
9640005323,191.9
9640005325,175.18
9640005326,190.29
9640005327,201.59
9640005329,225.15
9640005331,260.32
9640005338,241.81
9640005340,264.82
9640005342,293.98
9640005343,312.62
9640005345,347.43
9640005346,371.95
9640005347,0
9640005312,109.84
9640005314,127.75
9640005316,151.86
9640005357,645.27
9640005359,682.74
9640005362,792.99
9640005363,881.25
9640006327,755.61
9640000100,17.77
9640000102,20.39
9640000104,25.49
9640000110,30.55
9640000130,45.98
9640000148,76.42
9640000162,318.91
9640000169,131.53
9640000176,390.34
9640000180,515.6
9640000182,621.95
9640000184,701.78
9640001112,30.38
9640001114,36.06
9640001116,40.91
9640001118,58.27
9640001132,46.94
9640001135,53.24
9640001136,54
9640001137,63.09
9640001139,79.69
9640001150,69.43
9640001152,77.18
9640001153,86.03
9640001154,95.64
9640001155,97.91
9640001157,111.1
9640001170,139.31
9640001171,145.44
9640001173,171.65
9640001175,177.47
9640002100,29.83
9640002102,30.51
9640002104,34.68
9640002110,41.57
9640002130,61.06
9640002162,391.03
9640002176,508.23
9640002180,667.62
9640002182,760.85
9640002184,921.2
9640003112,44.05
9640003114,55.76
9640003116,60.65
9640003118,78.73
9640003132,68.02
9640003135,79.28
9640003136,82.41
9640003137,95.71
9640003139,112.21
9640003150,104.08
9640003152,108.59
9640003153,122.33
9640003154,141.96
9640003155,148.44
9640003157,168.38
9640003170,205.09
9640003171,215.11
9640003173,251.65
9640003175,258.68
9640004100,120.82
9640004102,137.99
9640004110,80.82
9640004130,144.6
9640004180,2021.08
9640004182,2495.66
9640005112,94.04
9640005114,105.39
9640005116,123.57
9640005132,126.26
9640005135,182.72
9640005136,196.22
9640005138,220.74
9640005150,266.66
9640005152,296.96
9640005153,358.59
9640005154,312.26
9640005156,374.16
9640005170,577.63
9640005171,614.64
9640005172,715.48
9640005173,759.47
9640006112,377.46
9640006132,493.73
9640006136,722.69
9640076202,329.42
9640076203,302.97
9640076204,406.56
9640077025,53.8
9640077026,55.48
9640077028,83.96
9640077029,86.48
9640077030,83.65
9640077032,112.58
9640077033,115.2
9640077034,123.4
9640077035,134.35
9640077037,185.67
9640077038,194
9640077039,228.82
9640077041,410.25
9640077001,61.44
9640077002,68.19
9640077004,94.54
9640077005,90.3
9640077006,99.81
9640077007,113.48
9640077009,128.43
9640077010,128.39
9640077011,129.49
9640077012,132.59
9640077013,140.58
9640077014,147.95
9640077016,206.09
9640077017,238.15
9640077018,235.36
9640077019,247.55
9640077021,403.36
9640077022,423.23
9640077501,36.37
9640077502,49.42
9640077503,62.92
9640077504,109.14
9640077505,185.32
9640077521,39.36
9640077522,53.69
9640077523,69.33
9640077524,121.33
9640077525,211.77
9640077430,84.07
9640077431,116.24
9640077432,161.97
9640077433,292.43
9640077434,599.94
9640077330,85.1
9640077331,118.44
9640077332,170.55
9640077333,291.36
9640077334,532.68
9650045105,279.83
9650045115,283.3
9650045140,290.43
9652055105,297.46
9652055115,299.25
9652055140,321.15
9655070105,403.15
9655070115,397.33
9655070140,517.19
9650080105,789.78
9650080115,807.62
9650080140,820.91
9655100105,1178.33
9655100115,1264.53
9655100140,1301.45
9650045005,319.19
9650045015,349.12
9650045040,389.62
9652055005,353.01
9652055015,359.52
9652055040,422.48
9652055065,512.12
9652055100,479.99
9655070005,580.38
9655070015,583
9655070040,777.04
9655070065,774
9655070100,672.65
9650080005,873.88
9650280015,965.9
9650080040,1043.36
9650080065,937.42
9650080100,1004.89
9655100005,2544.6
9655100015,1350.7
9655100040,0
9655100065,2485.91
9655100100,2615.89
9650045415,387.21
9650045440,408.6
9652055415,425.75
9652055440,526.31
9655070415,478.85
9655070440,676.3
9650080415,984.19
9650080440,1198.55
9655100415,1444.9
9655100440,1525.35
9654080025,803.18
9650080015,942.31
9650080030,1021.56
9650150030,988.77
9655150030,2519.32
9655200040,2746.83
9655200060,2861.48
9651150030,1331.76
9650180015,883.52
9655210040,2093.71
9655250040,2013.67
9654404015,1112.55
9654080254,1427.4
9650080154,1910.01
9650080304,2502.2
9655150304,5234.67
9653144015,883.63
9653148025,1156.84
9653208015,1610.35
9654144015,1855.76
9654148025,2173.61
9654208015,3057.41
9650814040,830.66
9650040060,954.78
9650814080,694.93
9650814085,960.94
9640071307,0
9640071313,0
9640071331,67.33
9640071333,69.43
9640071335,73.77
9640071339,80.9
9640071343,93.54
9640071359,96.23
9640071363,108.24
9640071367,118.37
9640071301,13.4
9640071302,14.81
9640071361,103.46
9640071369,129.08
9640071317,0
9640071306,35.34
9640071308,37.06
9640071310,38.95
9640071314,49.11
9640071318,55.52
9640071405,0
9640071407,42.91
9640071409,45.67
9640071413,55.86
9640071417,61.51
9640071431,75.15
9640071433,78.52
9640071435,83.21
9640071439,93.19
9640071443,108.18
9640071459,112.76
9640071461,121.33
9640071463,128.08
9640071467,140.83
9640071469,157.49
9640071609,36.2
9640071617,49.97
9640071601,13.16
9640071602,17.08
9640071603,20.6
9640071613,48.49
9640071659,38.85
9640071663,0
9640071667,55.1
9640071504,80.97
9640071509,82.76
9640071544,37.54
9640071549,0
9640070855,18.94
9640070020,149.88
9640070050,9.02
9640070052,11.92
9640070054,20.18
9640070056,34.27
9640070058,84.31
9640070070,10.09
9640070072,14.77
9640070074,20.18
9640070076,35.2
9640070078,81.49
9640070073,10.09
9640070075,14.33
9640074006,65.23
9640074008,99.26
9640074010,146.3
9640074012,283.1
9640074016,535.68
9640074020,872.19
9640072204,10
9640072205,11
9640072206,16
9640072208,24
9640072210,35
9640072212,88
9640072216,181
9640072502,4.34
9640072503,7.23
9640072504,8.64
9640072505,10.68
9640072506,5.89
9640072507,12.43
9640072508,14.53
9640072509,18.36
9640072510,4.44
9640072511,8.54
9640075160,11.12
9640075162,12.02
9640075164,15.64
9640075166,15.81
9640075168,42.09
9640076220,410.21
9640076222,490.01
9640032239,39.61
9640032240,41.71
9640032241,43.57
9640032242,44.91
9640032243,56
9640032244,57.76
9640032245,60.48
9640075851,48.87
9640075850,41.47
9640072900,0
9640072940,877.54
9640072941,986
9640072949,1314.66
9640072944,1206.27
9640072913,1353.12
9640072901,1426.55
9640072947,1230.75
9640072911,1465.01
9640072946,2846.11
9640072962,1003.48
9640072808,105.8
9640072810,113.38
9640072812,117.34
9640072816,132.04
9640072820,249.28
9640072824,308.72
9640072830,613.45
9640072620,1274.28
9640072693,49593.6
9640072619,2792.19
9640072602,1897.64
9640072648,4442.76
9640072695,87649.8
9640072692,87649.8
9640072621,1100.87
9640079179,231.44
9640079180,231.44
9640079181,231.47
9640079182,261.92
9640072603,30.86
9640072914,120.54
9640072910,44.84
9640072912,120.54
9640072606,19.63
9640072607,20.11
9640072605,17.98
9640072614,15.19
9640072608,51.63
9640072622,70.71
9640072623,139.9
9640072624,145.58
9640072625,151.85
9640079164,66.33
9640079166,69.74
9640079167,73.19
9640079168,87
9640079169,100.74
9640072627,31.37
9640072628,53.14
9640072631,73.67
9640072636,150.3
9640072654,349.7
9640072656,552.97
9640072658,1128.25
9640072660,56.48
9640072661,90.41
9640072663,193.24
9640072664,388.66
9640072666,712.84
9640072668,1423.06
9640072659,30.07
9640072679,99.22
9640072680,191.14
9640072681,0
9640072683,0
9640072684,0
9640072686,0
9640072688,5828.63
8513080626,0
8513100626,0
8513120626,0
8513140626,0
8513160626,0
8513100426,0
8513120426,0
8513140426,0
8513160426,0
8513200426,0
8513080426,0
8510080626,0
8510100626,0
8510120626,0
8510140626,0
8510160626,0
8510080426,0
8510100426,0
8510120426,0
8510140426,0
8510160426,0
8569080436,0
8569100436,0
8569120436,0
9640076016,48.39
9640076017,29
9640076018,37
9640076019,42
9640076020,0
9640076026,37.47
9640076027,27.8
9640076028,52.76
9640076029,70.88
9640076030,0
9640075610,21.54
9640075612,41.29
9640075658,0
9640075659,6.59
9640075661,7.59
9640075663,17.12
9640075664,18.45
9640075665,12.27
9640075660,5.93
9640075662,10.08
9640075611,0
9640075678,6.57
9640075679,5.94
9640075680,5.49
9640075681,6.66
9640075682,7.58
9640075683,9.82
9640075683,9.82
9640075684,12
9640075685,17.32
9640075686,0
9640075691,12.69
9640075692,11.59
9640075693,45.61
9640075694,66.88
9640075615,7.68
9640075623,7.16
9640075230,5.85
9640075232,7.25
9640075234,11.39
9640075236,16.36
9640075640,9.51
9640075641,10.5
9640075642,10.47
9640075643,9.88
9640075646,11.23
9640075647,11.02
9640075648,10.23
9640075649,11.4
9640075644,0
9640075645,11.02
9640075005,1.58
9640075006,1.41
9640075008,3.65
9640075010,6.75
9640075012,10.3
9640075009,5.79
9640075011,17.74
9640075210,3.72
9640075211,4.48
9640075212,6.1
9640075104,17.25
9640075106,17.5
9640075108,21.53
9640075110,31.2
9640075230,5.85
9640075232,7.25
9640075234,11.39
9640075236,16.36
9640075921,5.82
9640075920,10.68
9640075930,11.61
9640075201,14.81
9640075702,9.82
9640075706,12.81
9640075707,16.98
9640075710,15.81
9640075711,20.97
9640060377,13278.93
9640060390,4641.44
9640060450,23.94
9640060452,25.83
9640060454,28.14
9640060456,26.11
9640060458,28.62
9640060460,30.75
9640060462,33.27
9640060464,35.58
9640060466,37.88
9640060468,42.46
9640060470,46.67
9640060472,49.18
9640060474,52
9640060476,60.44
9640060478,61.51
9640060480,64.58
9640060482,66.33
9640060484,67.64
9640060486,70.95
	9640060488,0
9640060490,100.12
9640060492,101.8
	9640060494,0
9640072754,921.65
9640072755,924.71
9640072756,955.88
9640072757,905.77
9640072758,1054.83
9640072759,1155.46
9640072770,498.76
9640072793,7023.93
9640051693,7879.36
9640072795,2992.35
9640060071,12.16
9640060072,12.3
9640060075,11.85
9640060076,12.85
9640060077,7.09
9640060078,4.1
9640075130,79.28
9640075132,135.25
9640051601,244.52
9640051602,258.3
9640051603,247.97
9640051604,258.3
9640051605,337.51
9640051606,292.74
9640051607,303.07
9640051608,289.3
9640051609,306.52
9640051610,275.59
9640051611,303.07
9640051612,351.29
9640051615,347.84
9640051616,406.39
9640051617,661.28
9640051618,1043.57
9640051619,447.72
9640051621,433.94
9640051622,575.15
9640051623,775.18
9640051624,1136.52
9640051625,454.61
9640051626,630.32
9640051627,864.44
9640051628,719.8
9640051631,1350.05
9640051632,802.45
9640051633,974.65
9640051634,1177.85
9640051635,1622.12
9640051637,1060.75
9640051638,1267.39
9640051639,1591.13
9640051640,2104.28
9640051642,1153.74
9640051643,1501.58
9640051644,2004.41
9640051645,2428.02
9640051646,1642.79
9640051647,2347.57
9640051649,2510.68
9640051650,1969.97
9640051651,2686.32
9640051652,454.61
9640051653,595.81
9640051657,272.08
9640051659,485.6
9640051662,289.3
9640051663,1401.71
9640051664,1759.88
9640051665,2634.66
9640051667,709.46
9640051668,0
9640051673,509.71
9640051674,668.17
9640051675,809.34
9640051676,1171.1
9640051678,2875.74
9640051685,3633.42
9640051688,282.41
9640051691,702.58
9640051692,451.16
9640051694,438.18
9640051695,878.22
9640051696,871.33
9640051739,371.95
9640051686,1071.08
9640051671,1298.39
9640051654,2441.8
9640051697,3230.47
9640051682,3743.63
9640051683,4023.38
9640051712,2733.68
9640051854,454.61
9640051855,454.61
9640051856,785.23
9640051858,1215.73
9640051860,454.61
9640051861,454.61
9640051866,454.61
9640051867,454.61
9640051868,606.14
9640051869,781.79
9640051870,1060.75
9640051873,606.14
9640051882,526.93
9640051883,606.14
9640051884,607.31
9640051885,781.79
9640051886,1060.75
9640051888,1770.22
9640051892,606.14
9640051893,702.58
9640051894,867.89
9640051895,1060.75
9640051897,1770.22
9640051903,702.58
9640051904,867.89
9640051905,960.88
9640051906,1263.95
9640051908,1894.2
9640051914,854.11
9640051915,1074.53
9640051923,1405.15
9640051925,1666.9
9640051927,2014.74
9640051933,2813.75
9640051714,4432.15
9640051401,3306.72
9640051402,4077.7
9640051403,5558.62
9640051404,3598.98
9640051405,4336
9640051408,3881.39
9640051409,4604.63
9640051410,4019.15
9640051411,4742.39
9640051412,3953.82
9640051413,4776.83
9640051414,6478.16
9640051415,4628.74
9640051416,5011.02
9640051417,7273.73
9640051418,4852.6
9640051419,5723.93
9640051420,4959.36
9640051421,5823.8
9640051422,10232.12
9640051423,5954.68
9640051424,6357.62
9640051425,7673.23
9640051426,5954.68
9640051427,7160.08
9640051428,6178.54
9640051429,7649.12
9640051430,10824.49
9640051432,8103.73
9640051433,9254.03
9640051435,12226.2
9640051437,10824.49
9640051438,15714.97
9640079120,860.93
9640079206,605.01
9640079208,532.17
9640079210,557.17
9640079212,889.72
9640079216,813.99
9640079211,548.84
9640079306,1326.97
9640079308,1301.63
9640079310,1454.06
9640079312,1413
9640079316,1535.99
9640079311,1270.8
9640079020,986.5
9640079021,1375.33
9640079101,1012.19
9640075855,390.24
9640079102,28.76
9640079103,103.91
9640079104,68.05
9640042201,39.92
9640042202,42.4
9640042203,45.39
9640042204,44.77
9640042205,55.07
9640042206,65.68
9640042207,75.77
9640042208,89.58
9640042209,103.18
9640042210,133.63
9640042221,189.42
9640042222,191.76
9640042223,196.79
9640042224,216.97
9640042225,227.24
9640042226,278.17
9640042227,320.29
9640042228,409.35
9640042229,461.74
9640042230,557.17
9640042242,192.45
9640042243,190.18
9640042244,196.31
9640042245,119.71
9640042246,226.72
9640042247,244.28
9640042248,247.8
9640042249,236.09
9640042250,222.21
9640011005,3.31
9640011007,3.34
9640011008,3.44
9640011010,3.62
9640011011,3.72
9640011012,4.06
9640011013,5.13
9640011014,4.17
9640011015,4.82
9640011020,5.03
9640011021,5.51
9640011022,9.71
9640011026,10.09
9640011505,3.34
9640011507,3.55
9640011508,3.34
9640011510,3.62
9640011512,4.06
9640011514,4.17
9640011520,5.03
9640011522,9.75
9640011526,10.02
9640075401,3.48
9640011074,9.95
9640011070,8.09
9640011072,8.33
9640011080,10.99
9640011080,10.99
9640011082,14.19
9640017010,2.17
9640017110,1.38
9640017015,2.38
9640017115,1.96
9640017020,4.96
9640017120,3.79
9640017029,6.1
9640017129,4.31
9640017037,6.34
9640017137,5.75
9640017038,12.02
9640017054,20.8
9640017510,2.34
9640017610,1.03
9640017515,2.17
9640017615,1.76
9640017520,3.58
9640017620,4.92
9640017529,5.27
9640017629,4.65
9640017537,7.85
9640017637,5.37
9640017538,12.54
9640017554,23.73
9640016301,857.56
9640016302,793.7
9640013112,69.09
9640013114,63.65
9640013118,68.19
9640013122,63.78
9640013126,66.95
9640013130,70.29
9640013134,72.36
9640013140,103.73
9640013146,202.71
9640013152,193.45
9640013160,215.77
9640013166,75.08
9640013167,102.7
9640013168,75.91
9640013169,125.98
9640013170,120.26
9640013172,142.89
9640013182,283.2
9640013212,72.98
9640013214,69.74
9640013218,71.7
9640013222,69.98
9640013226,67.74
9640013230,77.7
9640013234,73.87
9640013240,100.36
9640013246,184.98
9640013252,195.55
9640013260,205.71
9640013289,273.83
9640013012,79.76
9640013014,84.1
9640013018,85.86
9640013022,85.86
9640013026,91.89
9640013030,110.86
9640013034,99.53
9640013040,110.21
9640013046,205.78
9640013052,189.63
9640013060,202.61
9640013065,105.35
9640013066,83.59
9640013067,94.88
9640013068,109.35
9640013069,121.64
9640013070,116.44
9640013072,125.74
9640013082,280.75
9640013312,95.36
9640013314,85.34
9640013318,96.54
9640013322,99.08
9640013326,114.79
9640013330,110.04
9640013346,237.7
9640013352,227.37
9640013363,104.59
9640013366,134.83
9640013412,115.58
9640013414,106.76
9640013418,95.05
9640013422,101.98
9640013430,121.3
9640015010,978.1
9640013980,9.33
9640013982,18.18
9640013984,30.79
9640013965,15.43
9640013966,12.02
9640013969,16.32
9640013990,14.74
9640013992,31
9640013994,40.05
9640013967,15.77
9640013968,17.94
9640013970,18.36
9640085112,
9640085116,44.57
9640085117,44.57
9640085120,51.18
9640085121,93.37
9640085122,47.53
9640085125,81
9640085132,125.22
9640085140,392.96
9640085150,834.83
9640085163,1143.41
9640085212,70.53
9640085216,0
9640085217,81
9640085220,99.98
9640085221,82.97
9640085225,0
9640085232,222.83
9640085240,713.25
9640085250,0
9640085263,1449.27
9640005107,0
9640005109,50.94
9640005111,46.12
9640005113,43.84
9640005117,46.91
9640005121,187.11
9640081212,413.14
9640081216,320.26
9640081220,390.07
9640081225,644.23
9640081232,968.11
9640081240,0
9640081250,0
9640081263,0
9640081264,0
9640081716,0
9640081720,0
9640081725,1090.65
9640004309,253.31
9640004311,305.04
9640004313,317.33
9640004316,384.14
9640004321,590.99
9640004329,1063.09
9640004336,2011.67
9640084716,0
9640084720,799.9
9640084725,0
9640084732,0
9640084740,5276.07
9640084750,0
9640084763,0
9640084516,513.29
9640084520,0
9640084525,712.08
9640084532,0
9640084540,1870.09
9640084616,0
9640084620,0
9640084625,290.5
9640084632,0
9640084640,0
9640084650,1386.07
9640084663,0
9640085816,0
9640085820,0
9640085912,12.95
9640085916,24.73
9640085920,16.29
9640085925,18.63
9640085932,0
9640085940,0
9640085950,151.57
9640085963,0
9640080507,12.81
9640080509,12.81
9640080511,13.26
9640080513,15.88
9640080516,17.67
9640080521,27.72
9640080529,50.42
9640085312,0
9640085316,0
9640085320,39.47
9640085325,41.16
9640085332,0
9640085340,0
9640085350,0
9640085363,0
9640080309,0
9640080311,0
9640080313,19.39
9640080316,19.73
9640080321,0
9640080329,0
9640080336,0
9640085321,22.45
9640081312,24.18
9640081316,25.28
9640081320,36.61
9640081325,58.55
9640081332,80.66
9640081340,138.35
9640081350,372.85
9640081363,486.5
9640086909,21.22
9640086913,26.59
9640086916,28.52
9640086921,44.84
9640086929,0
9640086936,0
9640081412,95.71
9640081416,96.95
9640081420,117.06
9640081425,222.79
9640081432,318.54
9640081440,675.4
9640081450,1217.59
9640081463,2223.93
9640086509,0
9640086511,62.65
9640086513,0
9640086516,81.55
9640086521,0
9640086529,0
9640086536,577.77
9640085612,0
9640085616,67.4
9640085620,81.42
9640085625,258.09
9640085632,382.7
9640005472,39.54
9640005473,0
9640005475,65.5
9640005476,0
9640081612,0
9640081616,165.45
9640081620,282.51
9640081625,0
9640081632,0
9640081640,844.81
9640081650,2145.78
9640086408,83.34
9640086411,0
9640086413,173095.44
9640086421,0
9640085416,46.91
9640085420,0
9640085421,49.18
9640085425,0
9640085426,0
9640085427,181.5
9640085433,0
9640085434,0
9640085435,154.64
9640085441,280.2
9640085442,0
9640085443,280.17
9640085452,381.6
9640085453,410.77
9640085465,464.25
9640085466,464.32
9640005401,37.16
9640005402,0
9640005403,0
9640005404,0
9640005405,0
9640005406,0
9640005407,0
9640005408,0
9640005410,0
9640005411,0
9640005411,0
9640005414,0
9640081516,0
9640081520,135.93
9640081521,112.55
9640081525,266.53
9640081526,223.41
9640081532,398.33
9640081533,320.81
9640081540,647.16
9640081541,530.72
9640081550,0
9640081551,719.86
9640081563,1630.63
9640081564,1469.66
9640002101,31.17
9640086315,89.54
9640086317,0
9640086318,0
9640086319,83.86
9640086322,0
9640086323,0
9640086330,284.89
9640086337,619.51
9640086611,0
9640086613,0
9640086616,245.21
9640086617,321.53
9640086621,519.49
9640086622,0
9640086629,1187.08
9640086713,0
9640086717,366.37
9640057105,28.93
9640057107,37.61
9640057110,37.54
9640057114,46.84
9640057120,56.14
9640057126,115.72
9640057135,173.58
9640055405,25.83
9640055407,27.21
9640055410,32.03
9640055414,40.64
9640055420,36.16
9640055426,129.29
9640055435,146.09
9640057205,28.93
9640057207,57.86
9640057210,37.54
9640057214,46.84
9640057220,43.39
9640057226,115.72
9640057235,141.58
9640055505,33.72
9640055507,33.85
9640055510,63.96
9640055514,41.47
9640055520,141.07
9640055526,92.26
9640055535,114.34
9640084970,44.29
9640084971,46.49
9640084975,49.63
9640084976,49.63
9640084981,178.88
9640084982,178.88
9640084985,172.41
9640084986,185.98
9640084993,64.82
9640084820,47.18
9640084825,60.48
9640084832,156.6
9640084840,296.18
9640084850,0
9640084863,431.88
9640084996,26
9640086816,3.89
9640086821,5.48
9640086829,9.13
9640056011,490.87
9640056012,1326.46
9640056017,1583.34
9640056018,712.91
9640056019,1945.89
9640056020,685.63
9640056024,1284.03
9640056025,2778.65
9640056101,4384.59
9640056102,5731.47
9640056210,396.06
9640056212,1002.82
9640056214,1346.4
9640056215,432.81
9640056216,572.36
9640056217,1484.43
9640056219,1788.02
9640056220,624.05
9640056225,1084.86
9640056226,2761.85
9640056227,3740.18
9640056233,6794.67
9640056612,2576.11
9640056617,3433.67
9640056626,5846.33
9640056312,1313.27
9640056317,1473.83
9640056326,2183.5
9640056703,4577.08
9640056707,11590.27
9640056708,41.47
